
<svg width="21px" height="21px" viewBox="690 23 21 21" version="1.1" xmlns="http://www.w3.org/2000/svg" xmlns:xlink="http://www.w3.org/1999/xlink">
    <!-- Generator: Sketch 3.7.2 (28276) - http://www.bohemiancoding.com/sketch -->
    <desc>Created with Sketch.</desc>
    <defs></defs>
    <g id="down-arrow" stroke="none" stroke-width="1" fill="none" fill-rule="evenodd" transform="translate(701.000000, 33.500000) rotate(-135.000000) translate(-701.000000, -33.500000) translate(695.000000, 28.000000)" stroke-linecap="round">
        <path d="M0.5,10 L10.5,10" id="Line" stroke="#FF0000" stroke-width="2"></path>
        <path d="M10.5,-1.05160325e-12 L10.5,10" id="Line-Copy-3" stroke="#FF0000" stroke-width="2"></path>
    </g>
    
</svg>