<?xml version="1.0" encoding="UTF-8" standalone="no"?>
<!-- Generator: Adobe Illustrator 24.0.1, SVG Export Plug-In . SVG Version: 6.00 Build 0)  -->

<svg
   xmlns:dc="http://purl.org/dc/elements/1.1/"
   xmlns:cc="http://creativecommons.org/ns#"
   xmlns:rdf="http://www.w3.org/1999/02/22-rdf-syntax-ns#"
   xmlns:svg="http://www.w3.org/2000/svg"
   xmlns="http://www.w3.org/2000/svg"
   xmlns:sodipodi="http://sodipodi.sourceforge.net/DTD/sodipodi-0.dtd"
   xmlns:inkscape="http://www.inkscape.org/namespaces/inkscape"
   version="1.1"
   id="Layer_1"
   x="0px"
   y="0px"
   viewBox="0 0 764.39 222.36998"
   xml:space="preserve"
   sodipodi:docname="ritchie-studio-logo.svg"
   width="764.39001"
   height="222.37"
   inkscape:version="0.92.4 (5da689c313, 2019-01-14)"><metadata
   id="metadata977"><rdf:RDF><cc:Work
       rdf:about=""><dc:format>image/svg+xml</dc:format><dc:type
         rdf:resource="http://purl.org/dc/dcmitype/StillImage" /><dc:title></dc:title></cc:Work></rdf:RDF></metadata><defs
   id="defs975" /><sodipodi:namedview
   pagecolor="#ffffff"
   bordercolor="#666666"
   borderopacity="1"
   objecttolerance="10"
   gridtolerance="10"
   guidetolerance="10"
   inkscape:pageopacity="0"
   inkscape:pageshadow="2"
   inkscape:window-width="1920"
   inkscape:window-height="1015"
   id="namedview973"
   showgrid="false"
   fit-margin-top="0"
   fit-margin-left="0"
   fit-margin-right="0"
   fit-margin-bottom="0"
   inkscape:zoom="1.3892621"
   inkscape:cx="378.93501"
   inkscape:cy="104.57999"
   inkscape:window-x="0"
   inkscape:window-y="0"
   inkscape:window-maximized="1"
   inkscape:current-layer="Layer_1" />
<style
   type="text/css"
   id="style932">
	.st0{fill-rule:evenodd;clip-rule:evenodd;fill:#E5251F;}
	.st1{fill:#E5251F;}
	.st2{fill:#656563;}
</style>
<g
   id="g970"
   transform="translate(-42.01,-179.85)">
	<polyline
   class="st0"
   points="42.01,280.94 138.99,303.46 202.65,402.18 165.42,300.35 237.16,280.94 162.18,280.94 165.73,233.05    142.93,271.59 77.08,207.45 124.47,280.94 42.01,280.94  "
   id="polyline934"
   style="clip-rule:evenodd;fill:#e5251f;fill-rule:evenodd" />
	<g
   id="g940">
		<path
   class="st1"
   d="m 315.44,221.49 c -2.77,-1.92 -5.56,-2.88 -8.37,-2.88 -4.51,0 -8.45,2.08 -11.82,6.23 -3.37,4.15 -5.06,9.15 -5.06,15 v 41.11 h -12.72 v -71.7 h 12.72 v 11.45 c 4.64,-8.53 11.54,-12.79 20.69,-12.79 2.28,0 5.56,0.4 9.84,1.21 z"
   id="path936"
   inkscape:connector-curvature="0"
   style="fill:#e5251f" />
		<path
   class="st1"
   d="M 805.39,246.33 H 753.7 c 0,8.39 2.3,14.84 6.9,19.35 4.06,3.93 9.28,5.89 15.67,5.89 7.27,0 13.35,-2.12 18.21,-6.36 l 5.35,9.17 c -1.96,1.97 -4.98,3.66 -9.04,5.09 -5.09,1.88 -10.76,2.81 -17,2.81 -9.02,0 -16.67,-3.06 -22.96,-9.17 -7.01,-6.74 -10.51,-15.8 -10.51,-27.18 0,-11.83 3.59,-21.31 10.78,-28.46 6.43,-6.38 14.04,-9.57 22.83,-9.57 10.22,0 18.23,2.88 24.03,8.64 5.62,5.53 8.44,12.88 8.44,22.03 -0.01,2.81 -0.34,5.4 -1.01,7.76 z m -30.86,-27.72 c -5.67,0 -10.42,1.83 -14.26,5.49 -3.66,3.48 -5.74,7.81 -6.23,12.99 h 39.7 c 0,-5.13 -1.61,-9.42 -4.82,-12.85 -3.53,-3.75 -8.33,-5.63 -14.39,-5.63 z"
   id="path938"
   inkscape:connector-curvature="0"
   style="fill:#e5251f" />
	</g>
	<g
   id="g946">
		<path
   class="st2"
   d="m 271.79,396.59 4.49,-12.05 c 7.1,4.64 12.81,6.96 17.14,6.96 7.85,0 11.78,-3.3 11.78,-9.91 0,-4.73 -3.79,-8.79 -11.38,-12.18 -5.85,-2.68 -9.79,-4.71 -11.82,-6.09 -2.03,-1.38 -3.79,-2.96 -5.29,-4.72 -1.5,-1.76 -2.61,-3.64 -3.35,-5.62 -0.74,-1.99 -1.11,-4.12 -1.11,-6.39 0,-5.89 2.14,-10.49 6.43,-13.79 4.28,-3.3 9.89,-4.95 16.8,-4.95 5.22,0 11.8,1.65 19.75,4.95 l -3.61,11.78 c -5.05,-4.02 -10.11,-6.03 -15.2,-6.03 -3.04,0 -5.59,0.71 -7.67,2.14 -2.08,1.43 -3.11,3.24 -3.11,5.42 0,4.6 2.61,8.08 7.83,10.44 l 9.11,4.15 c 5.58,2.54 9.64,5.45 12.18,8.7 2.54,3.26 3.82,7.34 3.82,12.25 0,6.43 -2.26,11.46 -6.76,15.1 -4.51,3.64 -10.76,5.46 -18.75,5.46 -7.53,0.01 -14.63,-1.87 -21.28,-5.62 z"
   id="path942"
   inkscape:connector-curvature="0"
   style="fill:#656563" />
		<path
   class="st2"
   d="m 740.03,364.86 c 0,-11.07 2.98,-20.01 8.94,-26.82 5.96,-6.81 13.8,-10.21 23.53,-10.21 10.27,0 18.23,3.27 23.9,9.81 5.67,6.54 8.5,15.61 8.5,27.22 0,11.56 -2.9,20.68 -8.7,27.35 -5.8,6.67 -13.7,10.01 -23.7,10.01 -10.22,0 -18.19,-3.37 -23.9,-10.11 -5.71,-6.74 -8.57,-15.82 -8.57,-27.25 z m 13.39,0 c 0,17.99 6.36,26.98 19.08,26.98 5.93,0 10.59,-2.41 13.96,-7.23 3.37,-4.82 5.05,-11.4 5.05,-19.75 0,-17.77 -6.34,-26.65 -19.01,-26.65 -5.8,0 -10.43,2.37 -13.89,7.1 -3.46,4.73 -5.19,11.25 -5.19,19.55 z"
   id="path944"
   inkscape:connector-curvature="0"
   style="fill:#656563" />
	</g>
	<g
   id="g950">
		<path
   class="st2"
   d="m 684.69,400.88 v -60.99 h -9.84 v -10.71 h 22.56 v 71.7 z m 6.97,-98.82 c 2.19,0 4.05,0.77 5.59,2.31 1.54,1.54 2.31,3.38 2.31,5.52 0,2.19 -0.77,4.05 -2.31,5.59 -1.54,1.54 -3.4,2.31 -5.59,2.31 -2.14,0 -3.98,-0.77 -5.53,-2.31 -1.54,-1.54 -2.31,-3.4 -2.31,-5.59 0,-2.19 0.76,-4.04 2.28,-5.56 1.52,-1.51 3.37,-2.27 5.56,-2.27 z"
   id="path948"
   inkscape:connector-curvature="0"
   style="fill:#656563" />
	</g>
	<g
   id="g954">
		<path
   class="st1"
   d="m 684.69,280.95 v -60.99 h -9.84 v -10.71 h 22.56 v 71.7 z m 6.97,-98.82 c 2.19,0 4.05,0.77 5.59,2.31 1.54,1.54 2.31,3.38 2.31,5.52 0,2.19 -0.77,4.05 -2.31,5.59 -1.54,1.54 -3.4,2.31 -5.59,2.31 -2.14,0 -3.98,-0.77 -5.53,-2.31 -1.54,-1.54 -2.31,-3.4 -2.31,-5.59 0,-2.19 0.76,-4.04 2.28,-5.56 1.52,-1.51 3.37,-2.27 5.56,-2.27 z"
   id="path952"
   inkscape:connector-curvature="0"
   style="fill:#e5251f" />
	</g>
	<path
   class="st1"
   d="m 628.55,280.95 v -45.06 c 0,-5.36 -1.32,-9.57 -3.95,-12.65 -2.63,-3.08 -6.34,-4.62 -11.11,-4.62 -3.08,0 -6.17,0.9 -9.27,2.71 -3.1,1.81 -5.48,3.92 -7.13,6.33 v 53.29 h -12.72 v -101.1 h 12.72 v 37.29 c 1.7,-2.63 4.43,-4.83 8.2,-6.59 3.77,-1.76 7.67,-2.65 11.68,-2.65 7.59,0 13.54,2.5 17.84,7.5 4.31,5 6.46,11.83 6.46,20.49 v 45.06 z"
   id="path956"
   inkscape:connector-curvature="0"
   style="fill:#e5251f" />
	<path
   class="st1"
   d="m 547.26,215.07 -6.29,8.97 c -1.3,-1.29 -3.58,-2.52 -6.86,-3.68 -3.28,-1.16 -6.51,-1.74 -9.67,-1.74 -6.92,0 -12.41,2.42 -16.47,7.26 -4.06,4.84 -6.09,11.48 -6.09,19.92 0,8.39 2.08,14.79 6.23,19.18 4.15,4.4 9.91,6.6 17.27,6.6 5.71,0 11.47,-2.21 17.27,-6.63 l 5.02,10.71 c -6.83,4.42 -15.29,6.63 -25.37,6.63 -9.77,0 -17.85,-3.28 -24.24,-9.84 -6.38,-6.56 -9.57,-15.44 -9.57,-26.65 0,-11.42 3.31,-20.6 9.94,-27.52 6.63,-6.92 15.7,-10.38 27.22,-10.38 3.71,0 7.72,0.78 12.05,2.34 4.31,1.57 7.51,3.17 9.56,4.83 z"
   id="path958"
   inkscape:connector-curvature="0"
   style="fill:#e5251f" />
	<path
   class="st1"
   d="m 420.04,219.28 h -8.3 v -10.04 h 8.3 v -15 l 12.72,-4.89 v 19.89 h 19.68 v 10.04 h -19.68 v 35.62 c 0,6.03 1.01,10.31 3.05,12.85 2.03,2.54 5.3,3.82 9.81,3.82 3.26,0 6.63,-0.83 10.11,-2.48 l 1.88,11.18 c -5.27,1.34 -11.05,2.01 -17.34,2.01 -5.67,0 -10.46,-2.11 -14.36,-6.33 -3.91,-4.22 -5.86,-9.54 -5.86,-15.97 v -40.7 z"
   id="path960"
   inkscape:connector-curvature="0"
   style="fill:#e5251f" />
	<path
   class="st1"
   d="m 359.24,280.95 v -60.99 h -9.84 v -10.71 h 22.56 v 71.7 z m 6.96,-98.82 c 2.19,0 4.05,0.77 5.59,2.31 1.54,1.54 2.31,3.38 2.31,5.52 0,2.19 -0.77,4.05 -2.31,5.59 -1.54,1.54 -3.4,2.31 -5.59,2.31 -2.14,0 -3.98,-0.77 -5.53,-2.31 -1.54,-1.54 -2.31,-3.4 -2.31,-5.59 0,-2.19 0.76,-4.04 2.28,-5.56 1.52,-1.51 3.37,-2.27 5.56,-2.27 z"
   id="path962"
   inkscape:connector-curvature="0"
   style="fill:#e5251f" />
	<path
   class="st2"
   d="m 374.18,339.22 h -8.3 v -10.04 h 8.3 v -15 l 12.72,-4.89 v 19.89 h 19.68 v 10.04 H 386.9 v 35.62 c 0,6.03 1.01,10.31 3.05,12.85 2.03,2.54 5.3,3.82 9.81,3.82 3.26,0 6.63,-0.83 10.11,-2.48 l 1.88,11.18 c -5.27,1.34 -11.05,2.01 -17.34,2.01 -5.67,0 -10.46,-2.11 -14.36,-6.33 -3.91,-4.22 -5.86,-9.54 -5.86,-15.97 v -40.7 z"
   id="path964"
   inkscape:connector-curvature="0"
   style="fill:#656563" />
	<path
   class="st2"
   d="m 469.64,329.18 v 45.73 c 0,11.07 4.8,16.6 14.39,16.6 4.19,0 8.03,-1.21 11.52,-3.62 3.48,-2.41 5.78,-5.2 6.9,-8.37 v -50.35 h 12.72 v 71.7 h -12.72 v -9.91 c -1.43,2.81 -4.3,5.39 -8.6,7.73 -4.31,2.34 -8.52,3.52 -12.62,3.52 -7.86,0 -13.87,-2.25 -18.04,-6.76 -4.17,-4.51 -6.26,-10.91 -6.26,-19.21 v -47.07 h 12.71 z"
   id="path966"
   inkscape:connector-curvature="0"
   style="fill:#656563" />
	<path
   class="st2"
   d="m 611.56,400.81 v -5.29 c -4.42,4.42 -10.85,6.63 -19.28,6.63 -8.97,0 -16.25,-3.21 -21.82,-9.64 -5.58,-6.43 -8.37,-15 -8.37,-25.71 0,-10.76 3.21,-19.94 9.64,-27.55 6.43,-7.61 14.08,-11.42 22.96,-11.42 7.41,0 13.03,1.74 16.87,5.22 v -33.28 h 12.72 V 400.8 h -12.72 z m 0,-55.03 c -3.21,-4.82 -7.61,-7.23 -13.19,-7.23 -6.83,0 -12.35,2.54 -16.57,7.63 -4.22,5.09 -6.33,11.56 -6.33,19.42 0,17.27 7.86,25.91 23.57,25.91 2.01,0 4.42,-0.64 7.23,-1.91 2.81,-1.27 4.57,-2.62 5.29,-4.05 z"
   id="path968"
   inkscape:connector-curvature="0"
   style="fill:#656563" />
</g>
</svg>