[
    {
        "key": "group_577138aa808be",
        "title": "Homepage blocks",
        "fields": [
            {
                "key": "field_577138bad30a1",
                "label": "Block",
                "name": "block",
                "type": "flexible_content",
                "instructions": "",
                "required": 0,
                "conditional_logic": 0,
                "wrapper": {
                    "width": "",
                    "class": "",
                    "id": ""
                },
                "button_label": "Add Block",
                "min": "",
                "max": "",
                "layouts": [
                    {
                        "key": "57729c54b033b",
                        "name": "slider",
                        "label": "Content slider",
                        "display": "block",
                        "sub_fields": [
                            {
                                "key": "field_57729c54b033c",
                                "label": "Theme",
                                "name": "theme",
                                "type": "radio",
                                "instructions": "Choose a \"Dark\" or 'Light' theme for this block",
                                "required": 1,
                                "conditional_logic": 0,
                                "wrapper": {
                                    "width": "",
                                    "class": "",
                                    "id": ""
                                },
                                "choices": {
                                    "light": "Light",
                                    "dark": "Dark"
                                },
                                "allow_null": 0,
                                "other_choice": 0,
                                "save_other_choice": 0,
                                "default_value": "",
                                "layout": "vertical",
                                "return_format": "value"
                            },
                            {
                                "key": "field_57729c54b033d",
                                "label": "Block title",
                                "name": "block_title",
                                "type": "text",
                                "instructions": "",
                                "required": 0,
                                "conditional_logic": 0,
                                "wrapper": {
                                    "width": "",
                                    "class": "",
                                    "id": ""
                                },
                                "default_value": "",
                                "placeholder": "",
                                "prepend": "",
                                "append": "",
                                "maxlength": "",
                                "readonly": 0,
                                "disabled": 0
                            },
                            {
                                "key": "field_57729c82b0343",
                                "label": "Items",
                                "name": "items",
                                "type": "repeater",
                                "instructions": "",
                                "required": 1,
                                "conditional_logic": 0,
                                "wrapper": {
                                    "width": "",
                                    "class": "",
                                    "id": ""
                                },
                                "collapsed": "",
                                "min": "",
                                "max": "",
                                "layout": "block",
                                "button_label": "Add item",
                                "sub_fields": [
                                    {
                                        "key": "field_57729c54b033e",
                                        "label": "Item title",
                                        "name": "item_title",
                                        "type": "text",
                                        "instructions": "",
                                        "required": 1,
                                        "conditional_logic": 0,
                                        "wrapper": {
                                            "width": "",
                                            "class": "",
                                            "id": ""
                                        },
                                        "default_value": "",
                                        "placeholder": "",
                                        "prepend": "",
                                        "append": "",
                                        "maxlength": "",
                                        "readonly": 0,
                                        "disabled": 0
                                    },
                                    {
                                        "key": "field_57729c54b033f",
                                        "label": "Item content",
                                        "name": "item_content",
                                        "type": "wysiwyg",
                                        "instructions": "",
                                        "required": 1,
                                        "conditional_logic": 0,
                                        "wrapper": {
                                            "width": "",
                                            "class": "",
                                            "id": ""
                                        },
                                        "default_value": "",
                                        "tabs": "all",
                                        "toolbar": "basic",
                                        "media_upload": 0
                                    },
                                    {
                                        "key": "field_579bb3a723c55",
                                        "label": "Item link type",
                                        "name": "item_link_type",
                                        "type": "radio",
                                        "instructions": "",
                                        "required": 1,
                                        "conditional_logic": 0,
                                        "wrapper": {
                                            "width": "",
                                            "class": "",
                                            "id": ""
                                        },
                                        "choices": {
                                            "external": "External URL",
                                            "pagelink": "Internal page link"
                                        },
                                        "allow_null": 0,
                                        "other_choice": 0,
                                        "save_other_choice": 0,
                                        "default_value": "pagelink",
                                        "layout": "vertical",
                                        "return_format": "value"
                                    },
                                    {
                                        "key": "field_57729c54b0340",
                                        "label": "Item link",
                                        "name": "item_link",
                                        "type": "page_link",
                                        "instructions": "",
                                        "required": 0,
                                        "conditional_logic": [
                                            [
                                                {
                                                    "field": "field_579bb3a723c55",
                                                    "operator": "==",
                                                    "value": "pagelink"
                                                }
                                            ]
                                        ],
                                        "wrapper": {
                                            "width": "",
                                            "class": "",
                                            "id": ""
                                        },
                                        "post_type": [],
                                        "taxonomy": [],
                                        "allow_null": 0,
                                        "multiple": 0,
                                        "allow_archives": 1
                                    },
                                    {
                                        "key": "field_579bb3d123c56",
                                        "label": "Item external link",
                                        "name": "item_external_link",
                                        "type": "url",
                                        "instructions": "",
                                        "required": "",
                                        "conditional_logic": [
                                            [
                                                {
                                                    "field": "field_579bb3a723c55",
                                                    "operator": "==",
                                                    "value": "external"
                                                }
                                            ]
                                        ],
                                        "wrapper": {
                                            "width": "",
                                            "class": "",
                                            "id": ""
                                        },
                                        "default_value": "",
                                        "placeholder": ""
                                    },
                                    {
                                        "key": "field_57729c54b0341",
                                        "label": "Item link text",
                                        "name": "item_link_text",
                                        "type": "text",
                                        "instructions": "",
                                        "required": 1,
                                        "conditional_logic": 0,
                                        "wrapper": {
                                            "width": "",
                                            "class": "",
                                            "id": ""
                                        },
                                        "default_value": "",
                                        "placeholder": "",
                                        "prepend": "",
                                        "append": "",
                                        "maxlength": "",
                                        "readonly": 0,
                                        "disabled": 0
                                    },
                                    {
                                        "key": "field_57729c54b0342",
                                        "label": "Item image",
                                        "name": "item_image",
                                        "type": "image",
                                        "instructions": "",
                                        "required": 1,
                                        "conditional_logic": 0,
                                        "wrapper": {
                                            "width": "",
                                            "class": "",
                                            "id": ""
                                        },
                                        "return_format": "id",
                                        "preview_size": "medium",
                                        "library": "all",
                                        "min_width": "",
                                        "min_height": "",
                                        "min_size": "",
                                        "max_width": "",
                                        "max_height": "",
                                        "max_size": "",
                                        "mime_types": ""
                                    },
                                    {
                                        "key": "field_579bb3fd23c57",
                                        "label": "Secondary link type",
                                        "name": "secondary_link_type",
                                        "type": "radio",
                                        "instructions": "",
                                        "required": 0,
                                        "conditional_logic": "",
                                        "wrapper": {
                                            "width": "",
                                            "class": "",
                                            "id": ""
                                        },
                                        "choices": {
                                            "external": "External URL",
                                            "pagelink": "Internal page link"
                                        },
                                        "allow_null": 1,
                                        "other_choice": 0,
                                        "save_other_choice": 0,
                                        "default_value": "pagelink",
                                        "layout": "vertical",
                                        "return_format": "value"
                                    },
                                    {
                                        "key": "field_57739c76467a7",
                                        "label": "Secondary item link",
                                        "name": "secondary_item_link",
                                        "type": "page_link",
                                        "instructions": "",
                                        "required": 1,
                                        "conditional_logic": [
                                            [
                                                {
                                                    "field": "field_579bb3a723c55",
                                                    "operator": "==",
                                                    "value": "pagelink"
                                                }
                                            ]
                                        ],
                                        "wrapper": {
                                            "width": "",
                                            "class": "",
                                            "id": ""
                                        },
                                        "post_type": [],
                                        "taxonomy": [],
                                        "allow_null": 0,
                                        "multiple": 0,
                                        "allow_archives": 1
                                    },
                                    {
                                        "key": "field_579bb42623c58",
                                        "label": "Secondary external link",
                                        "name": "secondary_external_link",
                                        "type": "url",
                                        "instructions": "",
                                        "required": "",
                                        "conditional_logic": [
                                            [
                                                {
                                                    "field": "field_579bb3a723c55",
                                                    "operator": "==",
                                                    "value": "external"
                                                }
                                            ]
                                        ],
                                        "wrapper": {
                                            "width": "",
                                            "class": "",
                                            "id": ""
                                        },
                                        "default_value": "",
                                        "placeholder": ""
                                    },
                                    {
                                        "key": "field_57739c9c467a8",
                                        "label": "Secondary item link text",
                                        "name": "secondary_item_link_text",
                                        "type": "text",
                                        "instructions": "",
                                        "required": "",
                                        "conditional_logic": "",
                                        "wrapper": {
                                            "width": "",
                                            "class": "",
                                            "id": ""
                                        },
                                        "default_value": "",
                                        "placeholder": "",
                                        "prepend": "",
                                        "append": "",
                                        "maxlength": "",
                                        "readonly": 0,
                                        "disabled": 0
                                    }
                                ]
                            }
                        ],
                        "min": "",
                        "max": ""
                    },
                    {
                        "key": "577299f806283",
                        "name": "static",
                        "label": "Static block",
                        "display": "block",
                        "sub_fields": [
                            {
                                "key": "field_577299f806284",
                                "label": "Theme",
                                "name": "theme",
                                "type": "radio",
                                "instructions": "Choose a \"Dark\" or 'Light' theme for this block",
                                "required": 1,
                                "conditional_logic": 0,
                                "wrapper": {
                                    "width": "",
                                    "class": "",
                                    "id": ""
                                },
                                "choices": {
                                    "light": "Light",
                                    "dark": "Dark"
                                },
                                "allow_null": 0,
                                "other_choice": 0,
                                "save_other_choice": 0,
                                "default_value": "dark",
                                "layout": "vertical",
                                "return_format": "value"
                            },
                            {
                                "key": "field_577299f806285",
                                "label": "Block title",
                                "name": "block_title",
                                "type": "text",
                                "instructions": "",
                                "required": 0,
                                "conditional_logic": 0,
                                "wrapper": {
                                    "width": "",
                                    "class": "",
                                    "id": ""
                                },
                                "default_value": "",
                                "placeholder": "",
                                "prepend": "",
                                "append": "",
                                "maxlength": "",
                                "readonly": 0,
                                "disabled": 0
                            },
                            {
                                "key": "field_577299f806286",
                                "label": "Item title",
                                "name": "item_title",
                                "type": "text",
                                "instructions": "",
                                "required": 1,
                                "conditional_logic": 0,
                                "wrapper": {
                                    "width": "",
                                    "class": "",
                                    "id": ""
                                },
                                "default_value": "",
                                "placeholder": "",
                                "prepend": "",
                                "append": "",
                                "maxlength": "",
                                "readonly": 0,
                                "disabled": 0
                            },
                            {
                                "key": "field_577299f806287",
                                "label": "Item content",
                                "name": "item_content",
                                "type": "wysiwyg",
                                "instructions": "",
                                "required": 1,
                                "conditional_logic": 0,
                                "wrapper": {
                                    "width": "",
                                    "class": "",
                                    "id": ""
                                },
                                "default_value": "",
                                "tabs": "all",
                                "toolbar": "basic",
                                "media_upload": 0
                            },
                            {
                                "key": "field_579bb1eed6bcb",
                                "label": "Link type",
                                "name": "link_type",
                                "type": "radio",
                                "instructions": "",
                                "required": 1,
                                "conditional_logic": "",
                                "wrapper": {
                                    "width": "",
                                    "class": "",
                                    "id": ""
                                },
                                "choices": {
                                    "external": "External URL",
                                    "pagelink": "Internal page link"
                                },
                                "allow_null": 0,
                                "other_choice": 0,
                                "save_other_choice": 0,
                                "default_value": "pagelink",
                                "layout": "vertical",
                                "return_format": "value"
                            },
                            {
                                "key": "field_577299f806288",
                                "label": "Item link",
                                "name": "item_link",
                                "type": "page_link",
                                "instructions": "",
                                "required": 0,
                                "conditional_logic": [
                                    [
                                        {
                                            "field": "field_579bb1eed6bcb",
                                            "operator": "==",
                                            "value": "pagelink"
                                        }
                                    ]
                                ],
                                "wrapper": {
                                    "width": "",
                                    "class": "",
                                    "id": ""
                                },
                                "post_type": [
                                    "post",
                                    "project",
                                    "literature",
                                    "innovation",
                                    "profile"
                                ],
                                "taxonomy": [],
                                "allow_null": 1,
                                "multiple": 0,
                                "allow_archives": 1
                            },
                            {
                                "key": "field_579bb1b3d6bca",
                                "label": "Item external link",
                                "name": "item_external_link",
                                "type": "url",
                                "instructions": "",
                                "required": 0,
                                "conditional_logic": [
                                    [
                                        {
                                            "field": "field_579bb1eed6bcb",
                                            "operator": "==",
                                            "value": "external"
                                        }
                                    ]
                                ],
                                "wrapper": {
                                    "width": "",
                                    "class": "",
                                    "id": ""
                                },
                                "default_value": "",
                                "placeholder": ""
                            },
                            {
                                "key": "field_577299f806289",
                                "label": "Item link text",
                                "name": "item_link_text",
                                "type": "text",
                                "instructions": "",
                                "required": 0,
                                "conditional_logic": 0,
                                "wrapper": {
                                    "width": "",
                                    "class": "",
                                    "id": ""
                                },
                                "default_value": "",
                                "placeholder": "",
                                "prepend": "",
                                "append": "",
                                "maxlength": "",
                                "readonly": 0,
                                "disabled": 0
                            },
                            {
                                "key": "field_579bb263d6bcc",
                                "label": "Secondary link type",
                                "name": "secondary_link_type",
                                "type": "radio",
                                "instructions": "",
                                "required": 1,
                                "conditional_logic": 0,
                                "wrapper": {
                                    "width": "",
                                    "class": "",
                                    "id": ""
                                },
                                "choices": {
                                    "external": "External URL",
                                    "pagelink": "Internal page link"
                                },
                                "allow_null": 0,
                                "other_choice": 0,
                                "save_other_choice": 0,
                                "default_value": "pagelink",
                                "layout": "vertical",
                                "return_format": "value"
                            },
                            {
                                "key": "field_579bb13cd6bc8",
                                "label": "Secondary item link",
                                "name": "secondary_item_link",
                                "type": "page_link",
                                "instructions": "",
                                "required": 0,
                                "conditional_logic": [
                                    [
                                        {
                                            "field": "field_579bb263d6bcc",
                                            "operator": "==",
                                            "value": "pagelink"
                                        }
                                    ]
                                ],
                                "wrapper": {
                                    "width": "",
                                    "class": "",
                                    "id": ""
                                },
                                "post_type": [
                                    "post",
                                    "project",
                                    "literature",
                                    "innovation",
                                    "profile"
                                ],
                                "taxonomy": [],
                                "allow_null": 1,
                                "multiple": 0,
                                "allow_archives": 1
                            },
                            {
                                "key": "field_579bb33bee163",
                                "label": "Secondary item external link",
                                "name": "secondary_item_external_link",
                                "type": "url",
                                "instructions": "",
                                "required": 0,
                                "conditional_logic": [
                                    [
                                        {
                                            "field": "field_579bb263d6bcc",
                                            "operator": "==",
                                            "value": "external"
                                        }
                                    ]
                                ],
                                "wrapper": {
                                    "width": "",
                                    "class": "",
                                    "id": ""
                                },
                                "default_value": "",
                                "placeholder": ""
                            },
                            {
                                "key": "field_579bb181d6bc9",
                                "label": "Secondary item link text",
                                "name": "secondary_item_link_text",
                                "type": "text",
                                "instructions": "",
                                "required": 0,
                                "conditional_logic": 0,
                                "wrapper": {
                                    "width": "",
                                    "class": "",
                                    "id": ""
                                },
                                "default_value": "",
                                "placeholder": "",
                                "prepend": "",
                                "append": "",
                                "maxlength": "",
                                "readonly": 0,
                                "disabled": 0
                            },
                            {
                                "key": "field_577299f80628a",
                                "label": "Item image",
                                "name": "item_image",
                                "type": "image",
                                "instructions": "",
                                "required": 1,
                                "conditional_logic": 0,
                                "wrapper": {
                                    "width": "",
                                    "class": "",
                                    "id": ""
                                },
                                "return_format": "id",
                                "preview_size": "medium",
                                "library": "all",
                                "min_width": "",
                                "min_height": "",
                                "min_size": "",
                                "max_width": "",
                                "max_height": "",
                                "max_size": "",
                                "mime_types": ""
                            },
                            {
                                "key": "field_579b7ffa6a1e4",
                                "label": "Image alignment",
                                "name": "image_align",
                                "type": "radio",
                                "instructions": "",
                                "required": 1,
                                "conditional_logic": 0,
                                "wrapper": {
                                    "width": "",
                                    "class": "",
                                    "id": ""
                                },
                                "choices": {
                                    "left": "left",
                                    "right": "right"
                                },
                                "allow_null": 0,
                                "other_choice": 0,
                                "save_other_choice": 0,
                                "default_value": "",
                                "layout": "vertical",
                                "return_format": "value"
                            }
                        ],
                        "min": "",
                        "max": ""
                    },
                    {
                        "key": "57713ac6b58d5",
                        "name": "text_carousel",
                        "label": "Text Carousel",
                        "display": "block",
                        "sub_fields": [
                            {
                                "key": "field_57713be991240",
                                "label": "Theme",
                                "name": "theme",
                                "type": "radio",
                                "instructions": "Choose a \"Dark\" or 'Light' theme for this block",
                                "required": 1,
                                "conditional_logic": 0,
                                "wrapper": {
                                    "width": "",
                                    "class": "",
                                    "id": ""
                                },
                                "choices": {
                                    "light": "Light",
                                    "dark": "Dark"
                                },
                                "other_choice": 0,
                                "save_other_choice": 0,
                                "default_value": "",
                                "layout": "vertical",
                                "allow_null": 0,
                                "return_format": "value"
                            },
                            {
                                "key": "field_57713c3a91241",
                                "label": "Block Title",
                                "name": "block_title",
                                "type": "text",
                                "instructions": "This is the small text that appears above the block content",
                                "required": 1,
                                "conditional_logic": 0,
                                "wrapper": {
                                    "width": "",
                                    "class": "",
                                    "id": ""
                                },
                                "default_value": "",
                                "placeholder": "",
                                "prepend": "",
                                "append": "",
                                "maxlength": "",
                                "readonly": 0,
                                "disabled": 0
                            },
                            {
                                "key": "field_57713c7291242",
                                "label": "Text content",
                                "name": "text_carousel_content",
                                "type": "repeater",
                                "instructions": "",
                                "required": 1,
                                "conditional_logic": 0,
                                "wrapper": {
                                    "width": "",
                                    "class": "",
                                    "id": ""
                                },
                                "collapsed": "",
                                "min": 1,
                                "max": 5,
                                "layout": "table",
                                "button_label": "Add content",
                                "sub_fields": [
                                    {
                                        "key": "field_57713c8a91243",
                                        "label": "Carousel Text",
                                        "name": "text_carousel_text",
                                        "type": "text",
                                        "instructions": "The text that will appear in this block's content carousel",
                                        "required": 0,
                                        "conditional_logic": 0,
                                        "wrapper": {
                                            "width": "",
                                            "class": "",
                                            "id": ""
                                        },
                                        "default_value": "",
                                        "placeholder": "",
                                        "prepend": "",
                                        "append": "",
                                        "maxlength": "",
                                        "readonly": 0,
                                        "disabled": 0
                                    }
                                ]
                            },
                            {
                                "key": "field_5772456a5270d",
                                "label": "Text Carousel Link",
                                "name": "text_carousel_link",
                                "type": "page_link",
                                "instructions": "",
                                "required": 0,
                                "conditional_logic": "",
                                "wrapper": {
                                    "width": "",
                                    "class": "",
                                    "id": ""
                                },
                                "post_type": [],
                                "taxonomy": [],
                                "allow_null": 0,
                                "multiple": 0,
                                "allow_archives": 1
                            },
                            {
                                "key": "field_577245d55270e",
                                "label": "Text Carousel Link Text",
                                "name": "text_carousel_link_text",
                                "type": "text",
                                "instructions": "",
                                "required": 0,
                                "conditional_logic": 0,
                                "wrapper": {
                                    "width": "",
                                    "class": "",
                                    "id": ""
                                },
                                "default_value": "",
                                "placeholder": "",
                                "prepend": "",
                                "append": "",
                                "maxlength": "",
                                "readonly": 0,
                                "disabled": 0
                            }
                        ],
                        "min": "",
                        "max": ""
                    }
                ]
            }
        ],
        "location": [
            [
                {
                    "param": "page",
                    "operator": "==",
                    "value": "416"
                }
            ]
        ],
        "menu_order": 1,
        "position": "normal",
        "style": "default",
        "label_placement": "top",
        "instruction_placement": "label",
        "hide_on_screen": [
            "the_content",
            "excerpt",
            "custom_fields",
            "discussion",
            "comments",
            "revisions",
            "slug",
            "author",
            "format",
            "page_attributes",
            "featured_image",
            "categories",
            "tags",
            "send-trackbacks"
        ],
        "active": 1,
        "description": ""
    },
    {
        "key": "group_56ea6a2c61df1",
        "title": "Project Details",
        "fields": [
            {
                "key": "field_56ea6a3e89c01",
                "label": "Year",
                "name": "project_year",
                "type": "number",
                "instructions": "",
                "required": 0,
                "conditional_logic": 0,
                "wrapper": {
                    "width": "",
                    "class": "",
                    "id": ""
                },
                "default_value": "",
                "placeholder": "",
                "prepend": "",
                "append": "",
                "min": "",
                "max": "",
                "step": "",
                "readonly": 0,
                "disabled": 0
            },
            {
                "key": "field_56ea6ad189c02",
                "label": "Project Number",
                "name": "project_number",
                "type": "text",
                "instructions": "",
                "required": 0,
                "conditional_logic": 0,
                "wrapper": {
                    "width": "",
                    "class": "",
                    "id": ""
                },
                "default_value": "",
                "placeholder": "",
                "prepend": "",
                "append": "",
                "maxlength": "",
                "readonly": 0,
                "disabled": 0
            },
            {
                "key": "field_57792d7a4e4ad",
                "label": "Location",
                "name": "project_location",
                "type": "text",
                "instructions": "",
                "required": 0,
                "conditional_logic": 0,
                "wrapper": {
                    "width": "",
                    "class": "",
                    "id": ""
                },
                "default_value": "",
                "placeholder": "",
                "prepend": "",
                "append": "",
                "maxlength": "",
                "readonly": 0,
                "disabled": 0
            }
        ],
        "location": [
            [
                {
                    "param": "post_type",
                    "operator": "==",
                    "value": "project"
                }
            ]
        ],
        "menu_order": 2,
        "position": "side",
        "style": "default",
        "label_placement": "top",
        "instruction_placement": "label",
        "hide_on_screen": "",
        "active": 1,
        "description": ""
    },
    {
        "key": "group_56ea684a7d252",
        "title": "Slideshow",
        "fields": [
            {
                "key": "field_56ea68b569f23",
                "label": "Slides",
                "name": "slides",
                "type": "gallery",
                "instructions": "",
                "required": 0,
                "conditional_logic": 0,
                "wrapper": {
                    "width": "",
                    "class": "",
                    "id": ""
                },
                "min": "",
                "max": "",
                "preview_size": "thumbnail",
                "insert": "append",
                "library": "uploadedTo",
                "min_width": "",
                "min_height": "",
                "min_size": "",
                "max_width": "",
                "max_height": "",
                "max_size": "",
                "mime_types": ""
            }
        ],
        "location": [
            [
                {
                    "param": "post_type",
                    "operator": "==",
                    "value": "project"
                }
            ],
            [
                {
                    "param": "post_type",
                    "operator": "==",
                    "value": "innovation"
                }
            ]
        ],
        "menu_order": 3,
        "position": "acf_after_title",
        "style": "seamless",
        "label_placement": "top",
        "instruction_placement": "label",
        "hide_on_screen": "",
        "active": 1,
        "description": ""
    },
    {
        "key": "group_5742a89faec80",
        "title": "Project data",
        "fields": [
            {
                "key": "field_5742a8cff8de7",
                "label": "Awards",
                "name": "awards",
                "type": "repeater",
                "instructions": "",
                "required": 0,
                "conditional_logic": 0,
                "wrapper": {
                    "width": "",
                    "class": "",
                    "id": ""
                },
                "collapsed": "field_5742a8fff8de8",
                "min": "",
                "max": "",
                "layout": "table",
                "button_label": "Add Award",
                "sub_fields": [
                    {
                        "key": "field_5742a8fff8de8",
                        "label": "Name",
                        "name": "name",
                        "type": "text",
                        "instructions": "",
                        "required": 1,
                        "conditional_logic": 0,
                        "wrapper": {
                            "width": "",
                            "class": "",
                            "id": ""
                        },
                        "default_value": "",
                        "placeholder": "",
                        "prepend": "",
                        "append": "",
                        "maxlength": "",
                        "readonly": 0,
                        "disabled": 0
                    },
                    {
                        "key": "field_5742a92df8de9",
                        "label": "Year",
                        "name": "year",
                        "type": "text",
                        "instructions": "",
                        "required": 1,
                        "conditional_logic": 0,
                        "wrapper": {
                            "width": "",
                            "class": "",
                            "id": ""
                        },
                        "default_value": "",
                        "placeholder": "",
                        "prepend": "",
                        "append": "",
                        "maxlength": "",
                        "readonly": 0,
                        "disabled": 0
                    },
                    {
                        "key": "field_5742aaf2f8dec",
                        "label": "Awarding body",
                        "name": "awarding_body",
                        "type": "text",
                        "instructions": "",
                        "required": 0,
                        "conditional_logic": 0,
                        "wrapper": {
                            "width": "",
                            "class": "",
                            "id": ""
                        },
                        "default_value": "",
                        "placeholder": "",
                        "prepend": "",
                        "append": "",
                        "maxlength": "",
                        "readonly": 0,
                        "disabled": 0
                    },
                    {
                        "key": "field_5742ab3cf8ded",
                        "label": "Award URL",
                        "name": "url",
                        "type": "url",
                        "instructions": "",
                        "required": 0,
                        "conditional_logic": 0,
                        "wrapper": {
                            "width": "",
                            "class": "",
                            "id": ""
                        },
                        "default_value": "",
                        "placeholder": ""
                    },
                    {
                        "key": "field_5742ac0bf8dee",
                        "label": "Award type",
                        "name": "award_type",
                        "type": "select",
                        "instructions": "",
                        "required": 0,
                        "conditional_logic": 0,
                        "wrapper": {
                            "width": "",
                            "class": "",
                            "id": ""
                        },
                        "choices": {
                            "international": "international",
                            "national": "national",
                            "regional": "regional",
                            "personal": "personal"
                        },
                        "default_value": [],
                        "allow_null": 0,
                        "multiple": 0,
                        "ui": 0,
                        "ajax": 0,
                        "placeholder": "",
                        "disabled": 0,
                        "readonly": 0,
                        "return_format": "value"
                    }
                ]
            },
            {
                "key": "field_5742a9d9f8dea",
                "label": "Bibliography",
                "name": "bibliography",
                "type": "repeater",
                "instructions": "",
                "required": 0,
                "conditional_logic": 0,
                "wrapper": {
                    "width": "",
                    "class": "",
                    "id": ""
                },
                "collapsed": "field_5742aa44f8deb",
                "min": "",
                "max": "",
                "layout": "table",
                "button_label": "Add Citation",
                "sub_fields": [
                    {
                        "key": "field_5742af35f8df4",
                        "label": "Publication type",
                        "name": "publication_type",
                        "type": "select",
                        "instructions": "",
                        "required": 1,
                        "conditional_logic": 0,
                        "wrapper": {
                            "width": "",
                            "class": "",
                            "id": ""
                        },
                        "choices": {
                            "book": "book",
                            "journal": "journal",
                            "online": "online"
                        },
                        "default_value": [],
                        "allow_null": 0,
                        "multiple": 0,
                        "ui": 0,
                        "ajax": 0,
                        "placeholder": "",
                        "disabled": 0,
                        "readonly": 0,
                        "return_format": "value"
                    },
                    {
                        "key": "field_5742aa44f8deb",
                        "label": "Title",
                        "name": "title",
                        "type": "text",
                        "instructions": "",
                        "required": 1,
                        "conditional_logic": 0,
                        "wrapper": {
                            "width": "",
                            "class": "",
                            "id": ""
                        },
                        "default_value": "",
                        "placeholder": "",
                        "prepend": "",
                        "append": "",
                        "maxlength": "",
                        "readonly": 0,
                        "disabled": 0
                    },
                    {
                        "key": "field_5755da2611826",
                        "label": "Month",
                        "name": "publication_month",
                        "type": "number",
                        "instructions": "",
                        "required": "",
                        "conditional_logic": "",
                        "wrapper": {
                            "width": "",
                            "class": "",
                            "id": ""
                        },
                        "default_value": "",
                        "placeholder": "",
                        "prepend": "",
                        "append": "",
                        "min": 1,
                        "max": 12,
                        "step": 1,
                        "readonly": 0,
                        "disabled": 0
                    },
                    {
                        "key": "field_5755d9dc11825",
                        "label": "Year",
                        "name": "publication_year",
                        "type": "number",
                        "instructions": "",
                        "required": 0,
                        "conditional_logic": "",
                        "wrapper": {
                            "width": "",
                            "class": "",
                            "id": ""
                        },
                        "default_value": "",
                        "placeholder": "",
                        "prepend": "",
                        "append": "",
                        "min": 1900,
                        "max": 2100,
                        "step": 1,
                        "readonly": 0,
                        "disabled": 0
                    },
                    {
                        "key": "field_577579dfe8650",
                        "label": "Publication URL",
                        "name": "publication_url",
                        "type": "url",
                        "instructions": "",
                        "required": 0,
                        "conditional_logic": "",
                        "wrapper": {
                            "width": "",
                            "class": "",
                            "id": ""
                        },
                        "default_value": "",
                        "placeholder": ""
                    },
                    {
                        "key": "field_5742ae7cf8df0",
                        "label": "Author name",
                        "name": "author_name",
                        "type": "text",
                        "instructions": "",
                        "required": 0,
                        "conditional_logic": 0,
                        "wrapper": {
                            "width": "",
                            "class": "",
                            "id": ""
                        },
                        "default_value": "",
                        "placeholder": "",
                        "prepend": "",
                        "append": "",
                        "maxlength": "",
                        "readonly": 0,
                        "disabled": 0
                    },
                    {
                        "key": "field_5742aea1f8df1",
                        "label": "Publisher",
                        "name": "publisher",
                        "type": "text",
                        "instructions": "",
                        "required": 0,
                        "conditional_logic": [
                            [
                                {
                                    "field": "field_5742af35f8df4",
                                    "operator": "==",
                                    "value": "book"
                                }
                            ]
                        ],
                        "wrapper": {
                            "width": "",
                            "class": "",
                            "id": ""
                        },
                        "default_value": "",
                        "placeholder": "",
                        "prepend": "",
                        "append": "",
                        "maxlength": "",
                        "readonly": 0,
                        "disabled": 0
                    },
                    {
                        "key": "field_5742af15f8df3",
                        "label": "ISBN",
                        "name": "isbn",
                        "type": "text",
                        "instructions": "",
                        "required": 0,
                        "conditional_logic": [
                            [
                                {
                                    "field": "field_5742af35f8df4",
                                    "operator": "==",
                                    "value": "book"
                                }
                            ]
                        ],
                        "wrapper": {
                            "width": "",
                            "class": "",
                            "id": ""
                        },
                        "default_value": "",
                        "placeholder": "",
                        "prepend": "",
                        "append": "",
                        "maxlength": "",
                        "readonly": 0,
                        "disabled": 0
                    }
                ]
            },
            {
                "key": "field_574754b287908",
                "label": "External Links",
                "name": "external_links",
                "type": "repeater",
                "instructions": "",
                "required": 0,
                "conditional_logic": 0,
                "wrapper": {
                    "width": "",
                    "class": "",
                    "id": ""
                },
                "collapsed": "",
                "min": "",
                "max": "",
                "layout": "table",
                "button_label": "Add Link",
                "sub_fields": [
                    {
                        "key": "field_574754ec8790a",
                        "label": "Link URL",
                        "name": "url",
                        "type": "url",
                        "instructions": "",
                        "required": 0,
                        "conditional_logic": 0,
                        "wrapper": {
                            "width": "",
                            "class": "",
                            "id": ""
                        },
                        "default_value": "",
                        "placeholder": "http:\/\/"
                    },
                    {
                        "key": "field_574755058790b",
                        "label": "Link title",
                        "name": "title",
                        "type": "text",
                        "instructions": "",
                        "required": 0,
                        "conditional_logic": 0,
                        "wrapper": {
                            "width": "",
                            "class": "",
                            "id": ""
                        },
                        "default_value": "",
                        "placeholder": "",
                        "prepend": "",
                        "append": "",
                        "maxlength": "",
                        "readonly": 0,
                        "disabled": 0
                    }
                ]
            }
        ],
        "location": [
            [
                {
                    "param": "post_type",
                    "operator": "==",
                    "value": "project"
                }
            ]
        ],
        "menu_order": 4,
        "position": "normal",
        "style": "default",
        "label_placement": "top",
        "instruction_placement": "label",
        "hide_on_screen": "",
        "active": 1,
        "description": "",
        "local": "php"
    },
    {
        "key": "group_5742a5d05fe52",
        "title": "Related content",
        "fields": [
            {
                "key": "field_5754721028416",
                "label": "Related Content",
                "name": "related_content",
                "type": "post_object",
                "instructions": "",
                "required": 0,
                "conditional_logic": 0,
                "wrapper": {
                    "width": "",
                    "class": "",
                    "id": ""
                },
                "post_type": [
                    "product",
                    "project",
                    "literature",
                    "innovation"
                ],
                "taxonomy": [],
                "allow_null": 1,
                "multiple": 1,
                "return_format": "object",
                "ui": 1
            }
        ],
        "location": [
            [
                {
                    "param": "post_type",
                    "operator": "==",
                    "value": "project"
                }
            ],
            [
                {
                    "param": "post_type",
                    "operator": "==",
                    "value": "innovation"
                }
            ],
            [
                {
                    "param": "post_type",
                    "operator": "==",
                    "value": "literature"
                }
            ],
            [
                {
                    "param": "post_type",
                    "operator": "==",
                    "value": "product"
                }
            ]
        ],
        "menu_order": 5,
        "position": "normal",
        "style": "default",
        "label_placement": "top",
        "instruction_placement": "label",
        "hide_on_screen": "",
        "active": 1,
        "description": "",
        "local": "php"
    },
    {
        "key": "group_56ec4895eb88f",
        "title": "Additional Media",
        "fields": [
            {
                "key": "field_56ec48dae759e",
                "label": "Additional Media",
                "name": "additional_media",
                "type": "repeater",
                "instructions": "",
                "required": 0,
                "conditional_logic": 0,
                "wrapper": {
                    "width": "",
                    "class": "",
                    "id": ""
                },
                "collapsed": "field_56ec496ee75a0",
                "min": "",
                "max": "",
                "layout": "table",
                "button_label": "Add Row",
                "sub_fields": [
                    {
                        "key": "field_56ec49b4e75a1",
                        "label": "Type",
                        "name": "type",
                        "type": "select",
                        "instructions": "",
                        "required": 0,
                        "conditional_logic": 0,
                        "wrapper": {
                            "width": "",
                            "class": "",
                            "id": ""
                        },
                        "choices": {
                            "video": "Video",
                            "audio": "Audio",
                            "audiofile": "Uploaded Audio",
                            "file": "Uploaded file",
                            "link": "External Link"
                        },
                        "default_value": [],
                        "allow_null": 1,
                        "multiple": 0,
                        "ui": 1,
                        "ajax": 0,
                        "placeholder": "",
                        "disabled": 0,
                        "readonly": 0,
                        "return_format": "value"
                    },
                    {
                        "key": "field_56ec496ee75a0",
                        "label": "Title",
                        "name": "title",
                        "type": "text",
                        "instructions": "",
                        "required": 1,
                        "conditional_logic": 0,
                        "wrapper": {
                            "width": "",
                            "class": "",
                            "id": ""
                        },
                        "default_value": "",
                        "placeholder": "",
                        "prepend": "",
                        "append": "",
                        "maxlength": "",
                        "readonly": 0,
                        "disabled": 0
                    },
                    {
                        "key": "field_56ec491be759f",
                        "label": "URL",
                        "name": "url",
                        "type": "url",
                        "instructions": "",
                        "required": 0,
                        "conditional_logic": [
                            [
                                {
                                    "field": "field_56ec49b4e75a1",
                                    "operator": "==",
                                    "value": "video"
                                }
                            ],
                            [
                                {
                                    "field": "field_56ec49b4e75a1",
                                    "operator": "==",
                                    "value": "audio"
                                }
                            ],
                            [
                                {
                                    "field": "field_56ec49b4e75a1",
                                    "operator": "==",
                                    "value": "link"
                                }
                            ]
                        ],
                        "wrapper": {
                            "width": "",
                            "class": "",
                            "id": ""
                        },
                        "default_value": "",
                        "placeholder": ""
                    },
                    {
                        "key": "field_56ec4b2386237",
                        "label": "File",
                        "name": "file",
                        "type": "file",
                        "instructions": "",
                        "required": 0,
                        "conditional_logic": [
                            [
                                {
                                    "field": "field_56ec49b4e75a1",
                                    "operator": "==",
                                    "value": "file"
                                }
                            ],
                            [
                                {
                                    "field": "field_56ec49b4e75a1",
                                    "operator": "==",
                                    "value": "audiofile"
                                }
                            ]
                        ],
                        "wrapper": {
                            "width": "",
                            "class": "",
                            "id": ""
                        },
                        "return_format": "url",
                        "library": "all",
                        "min_size": "",
                        "max_size": "",
                        "mime_types": ""
                    }
                ]
            }
        ],
        "location": [
            [
                {
                    "param": "post_type",
                    "operator": "==",
                    "value": "project"
                }
            ],
            [
                {
                    "param": "post_type",
                    "operator": "==",
                    "value": "literature"
                }
            ],
            [
                {
                    "param": "post_type",
                    "operator": "==",
                    "value": "product"
                }
            ]
        ],
        "menu_order": 6,
        "position": "normal",
        "style": "default",
        "label_placement": "top",
        "instruction_placement": "label",
        "hide_on_screen": "",
        "active": 1,
        "description": "",
        "local": "php"
    },
    {
        "key": "group_577fbfe91a516",
        "title": "Address",
        "fields": [
            {
                "key": "field_576e525ced0ba",
                "label": "Organisation name",
                "name": "organisation_name",
                "type": "text",
                "instructions": "",
                "required": 1,
                "conditional_logic": 0,
                "wrapper": {
                    "width": "",
                    "class": "",
                    "id": ""
                },
                "default_value": "",
                "placeholder": "",
                "prepend": "",
                "append": "",
                "maxlength": "",
                "readonly": 0,
                "disabled": 0
            },
            {
                "key": "field_576e5290ed0bb",
                "label": "Street Address",
                "name": "street-address",
                "type": "text",
                "instructions": "",
                "required": 1,
                "conditional_logic": 0,
                "wrapper": {
                    "width": "",
                    "class": "",
                    "id": ""
                },
                "default_value": "",
                "placeholder": "",
                "prepend": "",
                "append": "",
                "maxlength": "",
                "readonly": 0,
                "disabled": 0
            },
            {
                "key": "field_576e529ded0bc",
                "label": "Locality",
                "name": "locality",
                "type": "text",
                "instructions": "",
                "required": 1,
                "conditional_logic": 0,
                "wrapper": {
                    "width": "",
                    "class": "",
                    "id": ""
                },
                "default_value": "",
                "placeholder": "",
                "prepend": "",
                "append": "",
                "maxlength": "",
                "readonly": 0,
                "disabled": 0
            },
            {
                "key": "field_576e52aaed0bd",
                "label": "Postcode",
                "name": "postal-code",
                "type": "text",
                "instructions": "",
                "required": 1,
                "conditional_logic": 0,
                "wrapper": {
                    "width": "",
                    "class": "",
                    "id": ""
                },
                "default_value": "",
                "placeholder": "",
                "prepend": "",
                "append": "",
                "maxlength": "",
                "readonly": 0,
                "disabled": 0
            },
            {
                "key": "field_576e52b8ed0be",
                "label": "Telephone",
                "name": "telephone",
                "type": "text",
                "instructions": "",
                "required": 1,
                "conditional_logic": 0,
                "wrapper": {
                    "width": "",
                    "class": "",
                    "id": ""
                },
                "default_value": "",
                "placeholder": "",
                "prepend": "",
                "append": "",
                "maxlength": "",
                "readonly": 0,
                "disabled": 0
            },
            {
                "key": "field_5777e643e6b09",
                "label": "Fax",
                "name": "fax",
                "type": "text",
                "instructions": "",
                "required": 0,
                "conditional_logic": 0,
                "wrapper": {
                    "width": "",
                    "class": "",
                    "id": ""
                },
                "default_value": "",
                "placeholder": "",
                "prepend": "",
                "append": "",
                "maxlength": "",
                "readonly": 0,
                "disabled": 0
            },
            {
                "key": "field_576e52d2ed0bf",
                "label": "Contact email",
                "name": "contact_email",
                "type": "text",
                "instructions": "",
                "required": 1,
                "conditional_logic": 0,
                "wrapper": {
                    "width": "",
                    "class": "",
                    "id": ""
                },
                "default_value": "",
                "placeholder": "",
                "prepend": "",
                "append": "",
                "maxlength": "",
                "readonly": 0,
                "disabled": 0
            }
        ],
        "location": [
            [
                {
                    "param": "options_page",
                    "operator": "==",
                    "value": "acf-options"
                }
            ]
        ],
        "menu_order": 7,
        "position": "normal",
        "style": "default",
        "label_placement": "top",
        "instruction_placement": "label",
        "hide_on_screen": "",
        "active": 1,
        "description": ""
    },
    {
        "key": "group_5755e9a361b2f",
        "title": "Map",
        "fields": [
            {
                "key": "field_5755ebe72b080",
                "label": "Map type",
                "name": "start_type",
                "type": "select",
                "instructions": "",
                "required": 0,
                "conditional_logic": 0,
                "wrapper": {
                    "width": "",
                    "class": "",
                    "id": ""
                },
                "choices": {
                    "ROADMAP": "Road map",
                    "SATELLITE": "Satellite images",
                    "HYBRID": "Mixture of road and satellite views",
                    "TERRAIN": "Physical map based on terrain information"
                },
                "default_value": [
                    "ROADMAP"
                ],
                "allow_null": 0,
                "multiple": 0,
                "ui": 1,
                "ajax": 0,
                "placeholder": "",
                "disabled": 0,
                "readonly": 0,
                "return_format": "value"
            },
            {
                "key": "field_5755ec9c2b081",
                "label": "Initial zoom level",
                "name": "start_zoom",
                "type": "number",
                "instructions": "Enter a number between 1 and 20 (1: World, 5: Landmass\/continent, 10: City, 15: Streets, 20: Buildings)",
                "required": 0,
                "conditional_logic": 0,
                "wrapper": {
                    "width": "",
                    "class": "",
                    "id": ""
                },
                "default_value": 14,
                "placeholder": "",
                "prepend": "",
                "append": "",
                "min": 1,
                "max": 20,
                "step": 1,
                "readonly": 0,
                "disabled": 0
            },
            {
                "key": "field_574697938d2fb",
                "label": "Locations",
                "name": "locations",
                "type": "repeater",
                "instructions": "",
                "required": 0,
                "conditional_logic": 0,
                "wrapper": {
                    "width": "",
                    "class": "",
                    "id": ""
                },
                "collapsed": "field_574697a58d2fc",
                "min": "",
                "max": "",
                "layout": "row",
                "button_label": "Add Location",
                "sub_fields": [
                    {
                        "key": "field_574697a58d2fc",
                        "label": "Title",
                        "name": "title",
                        "type": "text",
                        "instructions": "",
                        "required": 1,
                        "conditional_logic": 0,
                        "wrapper": {
                            "width": "",
                            "class": "",
                            "id": ""
                        },
                        "default_value": "",
                        "placeholder": "",
                        "prepend": "",
                        "append": "",
                        "maxlength": "",
                        "readonly": 0,
                        "disabled": 0
                    },
                    {
                        "key": "field_574697b68d2fd",
                        "label": "Description",
                        "name": "description",
                        "type": "textarea",
                        "instructions": "",
                        "required": 0,
                        "conditional_logic": 0,
                        "wrapper": {
                            "width": "",
                            "class": "",
                            "id": ""
                        },
                        "default_value": "",
                        "placeholder": "",
                        "maxlength": "",
                        "rows": "",
                        "new_lines": "wpautop",
                        "readonly": 0,
                        "disabled": 0
                    },
                    {
                        "key": "field_5755fb41eca95",
                        "label": "Image",
                        "name": "image",
                        "type": "image",
                        "instructions": "",
                        "required": 0,
                        "conditional_logic": 0,
                        "wrapper": {
                            "width": "",
                            "class": "",
                            "id": ""
                        },
                        "return_format": "array",
                        "preview_size": "thumbnail",
                        "library": "all",
                        "min_width": "",
                        "min_height": "",
                        "min_size": "",
                        "max_width": "",
                        "max_height": "",
                        "max_size": "",
                        "mime_types": ""
                    },
                    {
                        "key": "field_574697de8d2fe",
                        "label": "Location",
                        "name": "location",
                        "type": "google_map",
                        "instructions": "",
                        "required": 1,
                        "conditional_logic": 0,
                        "wrapper": {
                            "width": "",
                            "class": "",
                            "id": ""
                        },
                        "center_lat": "51.508352",
                        "center_lng": "-0.029845",
                        "zoom": "",
                        "height": ""
                    }
                ]
            }
        ],
        "location": [
            [
                {
                    "param": "post_type",
                    "operator": "==",
                    "value": "project"
                }
            ],
            [
                {
                    "param": "options_page",
                    "operator": "==",
                    "value": "acf-options"
                }
            ]
        ],
        "menu_order": 8,
        "position": "normal",
        "style": "default",
        "label_placement": "top",
        "instruction_placement": "label",
        "hide_on_screen": "",
        "active": 1,
        "description": ""
    },
    {
        "key": "group_577fc0bdce6f3",
        "title": "Archive page titles",
        "fields": [
            {
                "key": "field_577fc0d41a133",
                "label": "News",
                "name": "post",
                "type": "text",
                "instructions": "",
                "required": 1,
                "conditional_logic": 0,
                "wrapper": {
                    "width": "",
                    "class": "",
                    "id": ""
                },
                "default_value": "News",
                "placeholder": "",
                "prepend": "",
                "append": "",
                "maxlength": "",
                "readonly": 0,
                "disabled": 0
            },
            {
                "key": "field_577fc0f91a134",
                "label": "Profile",
                "name": "profile",
                "type": "text",
                "instructions": "",
                "required": 1,
                "conditional_logic": 0,
                "wrapper": {
                    "width": "",
                    "class": "",
                    "id": ""
                },
                "default_value": "Company Profile",
                "placeholder": "",
                "prepend": "",
                "append": "",
                "maxlength": "",
                "readonly": 0,
                "disabled": 0
            },
            {
                "key": "field_577fc1361a135",
                "label": "Projects",
                "name": "project",
                "type": "text",
                "instructions": "",
                "required": 1,
                "conditional_logic": 0,
                "wrapper": {
                    "width": "",
                    "class": "",
                    "id": ""
                },
                "default_value": "Projects",
                "placeholder": "",
                "prepend": "",
                "append": "",
                "maxlength": "",
                "readonly": 0,
                "disabled": 0
            },
            {
                "key": "field_577fc1491a136",
                "label": "Innovation",
                "name": "innovation",
                "type": "text",
                "instructions": "",
                "required": 1,
                "conditional_logic": 0,
                "wrapper": {
                    "width": "",
                    "class": "",
                    "id": ""
                },
                "default_value": "Innovation",
                "placeholder": "",
                "prepend": "",
                "append": "",
                "maxlength": "",
                "readonly": 0,
                "disabled": 0
            }
        ],
        "location": [
            [
                {
                    "param": "options_page",
                    "operator": "==",
                    "value": "acf-options"
                }
            ]
        ],
        "menu_order": 9,
        "position": "normal",
        "style": "default",
        "label_placement": "top",
        "instruction_placement": "label",
        "hide_on_screen": "",
        "active": 1,
        "description": ""
    },
    {
        "key": "group_5755ff014ed38",
        "title": "Keys",
        "fields": [
            {
                "key": "field_5755ff28a5ae1",
                "label": "Google analytics key",
                "name": "google_analytics_key",
                "type": "text",
                "instructions": "",
                "required": 0,
                "conditional_logic": 0,
                "wrapper": {
                    "width": "",
                    "class": "",
                    "id": ""
                },
                "default_value": "",
                "placeholder": "",
                "prepend": "",
                "append": "",
                "maxlength": "",
                "readonly": 0,
                "disabled": 0
            },
            {
                "key": "field_57d8f3b495cc6",
                "label": "Google tag manager key",
                "name": "google_tag_manager_key",
                "type": "text",
                "instructions": "",
                "required": 0,
                "conditional_logic": 0,
                "wrapper": {
                    "width": "",
                    "class": "",
                    "id": ""
                },
                "default_value": "",
                "placeholder": "",
                "prepend": "",
                "append": "",
                "maxlength": ""
            },
            {
                "key": "field_5755ff3da5ae2",
                "label": "Google webmaster tools key",
                "name": "google_webmaster_tools_key",
                "type": "text",
                "instructions": "This will be placed in a <meta> tag in each page so you can authorise the domain",
                "required": 0,
                "conditional_logic": 0,
                "wrapper": {
                    "width": "",
                    "class": "",
                    "id": ""
                },
                "default_value": "",
                "placeholder": "",
                "prepend": "",
                "append": "",
                "maxlength": ""
            },
            {
                "key": "field_5755ff4da5ae3",
                "label": "Bing webmaster tools key",
                "name": "bing_webmaster_tools_key",
                "type": "text",
                "instructions": "This will be placed in a <meta> tag in each page so you can authorise the domain",
                "required": 0,
                "conditional_logic": 0,
                "wrapper": {
                    "width": "",
                    "class": "",
                    "id": ""
                },
                "default_value": "",
                "placeholder": "",
                "prepend": "",
                "append": "",
                "maxlength": ""
            },
            {
                "key": "field_5755ffc8a5ae4",
                "label": "Google API key",
                "name": "google_api_key",
                "type": "text",
                "instructions": "",
                "required": 0,
                "conditional_logic": 0,
                "wrapper": {
                    "width": "",
                    "class": "",
                    "id": ""
                },
                "default_value": "",
                "placeholder": "",
                "prepend": "",
                "append": "",
                "maxlength": "",
                "readonly": 0,
                "disabled": 0
            }
        ],
        "location": [
            [
                {
                    "param": "options_page",
                    "operator": "==",
                    "value": "acf-options"
                }
            ]
        ],
        "menu_order": 10,
        "position": "normal",
        "style": "default",
        "label_placement": "top",
        "instruction_placement": "label",
        "hide_on_screen": "",
        "active": 1,
        "description": ""
    }
]