<?xml version="1.0" encoding="utf-8"?>
<!-- Generator: Adobe Illustrator 19.0.0, SVG Export Plug-In . SVG Version: 6.00 Build 0)  -->
<svg version="1.1" id="Layer_1" xmlns="http://www.w3.org/2000/svg" xmlns:xlink="http://www.w3.org/1999/xlink" x="0px" y="0px"
	 viewBox="292 302 662.8 30.7" style="enable-background:new 292 302 662.8 30.7;" xml:space="preserve">
<style type="text/css">
	.st0{fill:#392772;}
	.st1{fill:none;}
	.st2{fill:none;stroke:#000000;stroke-width:0.9715;}
	.st3{fill:#E62929;}
</style>
<path class="st0" d="M1187.8,241"/>
<rect x="121.3" y="297.8" class="st1" width="834.7" height="39"/>
<g>
	<g>
		<polygon class="st2" points="352.4,331.7 391.6,308.4 398.3,308.4 385.9,331.7 379.1,331.7 383.5,323.5 370.8,323.5 357.3,331.7 
					"/>
		<polygon class="st2" points="375.3,320.8 384.9,320.8 389.5,312.3 		"/>
	</g>
	<g>
		<polygon class="st2" points="599.5,331.7 644.3,303.3 652.8,303.3 637.6,331.7 630.5,331.7 636.2,321.3 621.1,321.3 605.1,331.7 
					"/>
		<polygon class="st2" points="625.6,318.7 637.3,318.7 643.7,307.2 		"/>
	</g>
	<polygon class="st2" points="388.4,331.7 401.4,308.4 408.2,308.4 417,322.2 424.4,308.5 427.3,308.5 414.9,331.7 402.4,311.8 
		391.4,331.7 	"/>
	<path class="st2" d="M432.7,331.6l15.1-27.6H460c0,0,8.1,0.2,8.1,5.1s-6.4,9.7-16.8,10.6c2.4,4.5,5.8,12,5.8,12h-3.2l-7.5-13.1
		l0.8-1.5h2.3c0,0,15-0.6,15-7.2c0-4-7.1-3.9-8.1-3.9s-3.1,0-3.1,0l-14,25.6H432.7z"/>
	<path class="st2" d="M640.9,331.7l12.3-23.6h10.1c0,0,8.5,0.2,8.5,4.4s-5.6,8.2-14.7,9c2.1,3.8,6,10.2,6,10.2h-2.8l-7.4-11l0.8-1.4
		h2c0,0,13.1-0.5,13.1-6.1c0-3.4-6.2-3.3-7.1-3.3c-0.9,0-0.9,0-2.7,0l-12.1,21.9L640.9,331.7L640.9,331.7z"/>
	<polygon class="st2" points="476.1,331.7 487.2,310.9 479.8,310.9 481.3,308.4 502.8,308.4 501.2,310.9 493,310.9 482,331.7 	"/>
	<polygon class="st2" points="740.1,331.7 751.5,310.9 744,310.9 745.5,308.4 766.7,308.4 765.5,310.9 757.3,310.9 746.3,331.7 	"/>
	<polygon class="st2" points="814.9,331.7 826.3,310.9 818.9,310.9 820.4,308.4 841.9,308.4 840.3,310.9 832.1,310.9 821.1,331.7 	
		"/>
	<path class="st2" d="M816.6,308.6l-1.8,2.5c0,0-19.7,1.5-21.2,11.2c-0.2,3.6,7.1,4.1,7.9,4.1c0.9,0,11.9,0.1,11.9,0.1l-2.8,5.3H800
		c0,0-11.5-0.4-11-8.4s10.3-14.3,23.7-14.8C814.7,308.5,816.6,308.6,816.6,308.6z"/>
	<path class="st2" d="M521.2,308.6l-1.5,2.5c0,0-19.4,1.5-20.8,11.2c0,4.1,6.7,4.1,7.6,4.1s12.3,0.1,12.3,0.1l-3.1,5.3h-10.8
		c0,0-11.5-0.4-11-8.4s10.3-14.3,23.7-14.8C519.7,308.5,521.2,308.6,521.2,308.6z"/>
	<path class="st2" d="M697.2,308.6l-1.5,2.5c0,0-19.4,1.5-20.8,11.2c0,4.1,6.7,4.1,7.6,4.1c0.9,0,12.3,0.1,12.3,0.1l-3.1,5.3h-10.8
		c0,0-11.5-0.4-11-8.4s10.3-14.3,23.7-14.8C695.6,308.5,697.2,308.6,697.2,308.6z"/>
	<g>
		<polygon class="st2" points="723.7,331.7 733.7,312.8 737.8,312.8 740.4,308.4 742.6,308.4 730,331.7 		"/>
		<polygon class="st2" points="546.7,331.7 556.8,312.8 560.8,312.8 563.5,308.4 565.6,308.4 553.1,331.7 		"/>
		<polygon class="st2" points="459.8,331.7 469.8,312.8 473.9,312.8 476.5,308.4 478.7,308.4 466.1,331.7 		"/>
		<polygon class="st2" points="736,308.4 738.3,308.4 736.8,311 734.6,311 		"/>
		<polygon class="st2" points="559,308.4 561.4,308.4 559.8,311 557.7,311 		"/>
		<polygon class="st2" points="471.9,308.4 474.3,308.4 472.7,311 470.6,311 		"/>
	</g>
	<polygon class="st2" points="695,331.7 707.7,308.4 713.5,308.4 707,320.5 723.5,320.5 729.9,308.4 732.7,308.4 720.4,331.7 
		717.3,331.7 721.5,323.6 705.4,323.6 700.8,331.6 	"/>
	<polygon class="st2" points="518.3,331.7 531,308.4 536.8,308.4 530.3,320.5 546.8,320.5 553.2,308.4 556.1,308.4 543.7,331.7 
		540.7,331.7 544.8,323.6 528.7,323.6 524.1,331.6 	"/>
	<polygon class="st2" points="757,331.7 769.7,308.5 792,308.5 790.8,310.7 774.5,310.7 769.6,320.1 785.3,320.1 784.2,322.4 
		768.2,322.4 766.3,325.5 785.1,325.5 781.8,331.7 	"/>
	<polygon class="st2" points="555.9,331.7 568.6,308.5 591,308.5 589.8,310.7 573.5,310.7 568.5,320.1 584.3,320.1 583.1,322.4 
		567.1,322.4 565.3,325.5 584.1,325.5 580.7,331.7 	"/>
	<path class="st2" d="M938,311"/>
	<path class="st2" d="M934,308.4c0,0-77.9,0-83.6,0c-5.6,0-6.2,2.6-6.2,3.6s4.8,10.2,6.7,13.5c1.9,3.4-1.7,3.4-1.7,3.4h-23.3
		l2.8,2.8h24.4c0,0,4.9-0.2,4.9-3.8s-7.2-14.1-7.2-15.6c0-1.4,0.6-1.7,4.1-1.7h78.9"/>
	<polygon class="st2" points="344.5,331.7 354.6,312.9 361.1,312.9 350.8,331.7 	"/>
	<polyline class="st2" points="158.1,308.4 357.4,308.4 359.7,304.1 366.9,304.1 363,310.9 158,310.9 	"/>
	<polygon class="st3" points="948.3,307.7 952.7,308.3 949.5,311.5 950.3,315.9 946.3,313.8 942.4,315.9 943.1,311.5 939.9,308.4 
		944.3,307.7 946.2,303.7 	"/>
</g>
</svg>
