<?xml version="1.0" encoding="utf-8"?>
<!-- Generator: Adobe Illustrator 19.0.0, SVG Export Plug-In . SVG Version: 6.00 Build 0)  -->
<svg version="1.1" id="Layer_1" xmlns="http://www.w3.org/2000/svg" xmlns:xlink="http://www.w3.org/1999/xlink" x="0px" y="0px"
	 viewBox="344 608.1 669.7 29.9" style="enable-background:new 344 608.1 669.7 29.9;" xml:space="preserve">
<style type="text/css">
	.st0{fill:#392772;}
	.st1{fill:none;}
	.st2{fill:#FFFFFF;stroke:#000000;stroke-width:0.9715;}
	.st3{fill:none;stroke:#000000;stroke-width:0.9715;}
	.st4{fill:#E62929;}
</style>
<path class="st0" d="M1248.8,546.3"/>
<rect x="182.3" y="603.1" class="st1" width="834.7" height="39"/>
<g>
	<path class="st2" d="M452.6,613.7L413.4,637h4.9l13.5-8.2h12.7l-4.4,8.2h6.8l12.4-23.3H452.6z M445.9,626.1h-9.6l14.2-8.5
		L445.9,626.1z"/>
	<path class="st2" d="M705.3,608.6L660.5,637h5.6l16-10.4h15.1l-5.7,10.4h7.1l15.2-28.4H705.3z M698.3,624h-11.7l18.1-11.5
		L698.3,624z"/>
	<polygon class="st2" points="449.4,637 462.4,613.7 469.2,613.7 478,627.5 485.4,613.8 488.3,613.8 475.9,637 463.4,617.1 
		452.4,637 	"/>
	<path class="st2" d="M493.7,636.9l15.1-27.6H521c0,0,8.1,0.2,8.1,5.1c0,4.9-6.4,9.7-16.8,10.6c2.4,4.5,5.8,12,5.8,12h-3.2
		l-7.5-13.1l0.8-1.5h2.3c0,0,15-0.6,15-7.2c0-4-7.1-3.9-8.1-3.9s-3.1,0-3.1,0l-14,25.6H493.7z"/>
	<path class="st2" d="M701.9,637l12.3-23.6h10.1c0,0,8.5,0.2,8.5,4.4c0,4.2-5.6,8.2-14.7,9c2.1,3.8,6,10.2,6,10.2h-2.8l-7.4-11
		l0.8-1.4h2c0,0,13.1-0.5,13.1-6.1c0-3.4-6.2-3.3-7.1-3.3c-0.9,0-0.9,0-2.7,0l-12.1,21.9L701.9,637L701.9,637z"/>
	<polygon class="st2" points="537.1,637 548.2,616.2 540.8,616.2 542.3,613.7 563.8,613.7 562.2,616.2 554,616.2 543,637 	"/>
	<polygon class="st2" points="801.1,637 812.5,616.2 805,616.2 806.5,613.7 827.7,613.7 826.5,616.2 818.3,616.2 807.3,637 	"/>
	<polygon class="st2" points="875.9,637 887.3,616.2 879.9,616.2 881.4,613.7 902.9,613.7 901.3,616.2 893.1,616.2 882.1,637 	"/>
	<path class="st2" d="M877.6,613.9l-1.8,2.5c0,0-19.7,1.5-21.2,11.2c-0.2,3.6,7.1,4.1,7.9,4.1c0.9,0,11.9,0.1,11.9,0.1l-2.8,5.3H861
		c0,0-11.5-0.4-11-8.4s10.3-14.3,23.7-14.8C875.7,613.8,877.6,613.9,877.6,613.9z"/>
	<path class="st2" d="M582.2,613.9l-1.5,2.5c0,0-19.4,1.5-20.8,11.2c0,4.1,6.7,4.1,7.6,4.1c0.9,0,12.3,0.1,12.3,0.1l-3.1,5.3h-10.8
		c0,0-11.5-0.4-11-8.4s10.3-14.3,23.7-14.8C580.7,613.8,582.2,613.9,582.2,613.9z"/>
	<path class="st2" d="M758.2,613.9l-1.5,2.5c0,0-19.4,1.5-20.8,11.2c0,4.1,6.7,4.1,7.6,4.1c0.9,0,12.3,0.1,12.3,0.1l-3.1,5.3h-10.8
		c0,0-11.5-0.4-11-8.4s10.3-14.3,23.7-14.8C756.6,613.8,758.2,613.9,758.2,613.9z"/>
	<g>
		<polygon class="st2" points="784.7,637 794.7,618.1 798.8,618.1 801.4,613.7 803.6,613.7 791,637 		"/>
		<polygon class="st2" points="607.7,637 617.8,618.1 621.8,618.1 624.5,613.7 626.6,613.7 614.1,637 		"/>
		<polygon class="st2" points="520.8,637 530.8,618.1 534.9,618.1 537.5,613.7 539.7,613.7 527.1,637 		"/>
		<polygon class="st2" points="797,613.7 799.3,613.7 797.8,616.3 795.6,616.3 		"/>
		<polygon class="st2" points="620,613.7 622.4,613.7 620.8,616.3 618.7,616.3 		"/>
		<polygon class="st2" points="532.9,613.7 535.3,613.7 533.7,616.3 531.6,616.3 		"/>
	</g>
	<polygon class="st2" points="756,637 768.7,613.7 774.5,613.7 768,625.8 784.5,625.8 790.9,613.7 793.7,613.7 781.4,637 778.3,637 
		782.5,628.9 766.4,628.9 761.8,636.9 	"/>
	<polygon class="st2" points="579.3,637 592,613.7 597.8,613.7 591.3,625.8 607.8,625.8 614.2,613.7 617.1,613.7 604.7,637 
		601.7,637 605.8,628.9 589.7,628.9 585.1,636.9 	"/>
	<polygon class="st2" points="818,637 830.7,613.8 853,613.8 851.8,616 835.5,616 830.6,625.4 846.3,625.4 845.2,627.7 829.2,627.7 
		827.3,630.8 846.1,630.8 842.8,637 	"/>
	<polygon class="st2" points="616.9,637 629.6,613.8 652,613.8 650.8,616 634.5,616 629.5,625.4 645.3,625.4 644.1,627.7 
		628.1,627.7 626.3,630.8 645.1,630.8 641.7,637 	"/>
	<path class="st3" d="M999,616.3"/>
	<path class="st2" d="M995,613.7c0,0-77.9,0-83.6,0c-5.6,0-6.2,2.6-6.2,3.6s4.8,10.2,6.7,13.5c1.9,3.4-1.7,3.4-1.7,3.4h-23.3
		l2.8,2.8h24.4c0,0,4.9-0.2,4.9-3.8s-7.2-14.1-7.2-15.6c0-1.4,0.6-1.7,4.1-1.7h78.9"/>
	<polygon class="st2" points="405.5,637 415.6,618.2 422.1,618.2 411.8,637 	"/>
	<polyline class="st2" points="219.1,613.7 418.4,613.7 420.7,609.4 427.9,609.4 424,616.2 219,616.2 	"/>
	<polygon class="st4" points="1009.3,613 1013.7,613.6 1010.5,616.8 1011.3,621.2 1007.3,619.1 1003.4,621.2 1004.1,616.8 
		1000.9,613.7 1005.3,613 1007.2,609 	"/>
</g>
</svg>
